digraph P {
node [shape=box];
0 -> 1 [ label="0.0050000000000000044" ];
0 -> 2 [ label="0.995" ];
1 -> 0 [ label="0.010000000000000009" ];
1 -> 3 [ label="0.98999999999999999" ];
2 -> 0 [ label="0.010000000000000009" ];
2 -> 4 [ label="0.98999999999999999" ];
3 -> 5 [ label="0.015000000000000013" ];
3 -> 6 [ label="0.98499999999999999" ];
4 -> 7 [ label="0.015000000000000013" ];
4 -> 8 [ label="0.98499999999999999" ];
5 -> 5 [ label="1" ];
6 -> 6 [ label="1" ];
7 -> 7 [ label="1" ];
8 -> 8 [ label="1" ];
0 [label="0\n(0,-1,-1,-1)"];
1 [label="1\n(1,0,-1,-1)"];
2 [label="2\n(1,1,-1,-1)"];
3 [label="3\n(2,0,1,-1)"];
4 [label="4\n(2,1,1,-1)"];
5 [label="5\n(3,0,1,0)"];
6 [label="6\n(3,0,1,1)"];
7 [label="7\n(3,1,1,0)"];
8 [label="8\n(3,1,1,1)"];
}
