Oct 04, 2022 8:56:59 PM services.SendingConfirmationServiceImpl sendForConfirmationToOrganization
INFO: Send for confirmation to Org1 finished with response true
Oct 04, 2022 8:56:59 PM services.SendingConfirmationServiceImpl sendForConfirmationToOrganization
INFO: Send for confirmation to Org1 finished with response true
