digraph P {
node [shape=box];
0 -> 1 [ label="0.0050000000000000044" ];
0 -> 2 [ label="0.995" ];
1 -> 3 [ label="0.010000000000000009" ];
1 -> 4 [ label="0.98999999999999999" ];
2 -> 5 [ label="0.010000000000000009" ];
2 -> 6 [ label="0.98999999999999999" ];
3 -> 0 [ label="0.015000000000000013" ];
3 -> 7 [ label="0.98499999999999999" ];
4 -> 0 [ label="0.015000000000000013" ];
4 -> 8 [ label="0.98499999999999999" ];
5 -> 9 [ label="0.015000000000000013" ];
5 -> 10 [ label="0.98499999999999999" ];
6 -> 11 [ label="0.015000000000000013" ];
6 -> 12 [ label="0.98499999999999999" ];
7 -> 7 [ label="1" ];
8 -> 8 [ label="1" ];
9 -> 9 [ label="1" ];
10 -> 10 [ label="1" ];
11 -> 11 [ label="1" ];
12 -> 12 [ label="1" ];
0 [label="0\n(0,-1,-1,-1)"];
1 [label="1\n(1,0,-1,-1)"];
2 [label="2\n(1,1,-1,-1)"];
3 [label="3\n(2,0,0,-1)"];
4 [label="4\n(2,0,1,-1)"];
5 [label="5\n(2,1,0,-1)"];
6 [label="6\n(2,1,1,-1)"];
7 [label="7\n(3,0,0,1)"];
8 [label="8\n(3,0,1,1)"];
9 [label="9\n(3,1,0,0)"];
10 [label="10\n(3,1,0,1)"];
11 [label="11\n(3,1,1,0)"];
12 [label="12\n(3,1,1,1)"];
}
